solid robotiq_85_inner_knuckle_link
   facet normal -1.000000e+000 0.000000e+000 3.192275e-008
      outer loop
         vertex -6.000000e+000 -2.000000e+001 2.634753e-007
         vertex -6.000000e+000 -2.000000e+001 1.050536e+001
         vertex -6.000000e+000 2.000000e+001 2.634753e-007
      endloop
   endfacet
   facet normal -1.000000e+000 0.000000e+000 3.192275e-008
      outer loop
         vertex -6.000000e+000 2.000000e+001 2.634753e-007
         vertex -6.000000e+000 -2.000000e+001 1.050536e+001
         vertex -6.000000e+000 -1.700000e+001 1.478981e+001
      endloop
   endfacet
   facet normal -1.000000e+000 0.000000e+000 3.192275e-008
      outer loop
         vertex -6.000000e+000 2.000000e+001 1.050536e+001
         vertex -6.000000e+000 2.000000e+001 2.634753e-007
         vertex -6.000000e+000 1.700000e+001 1.478981e+001
      endloop
   endfacet
   facet normal -1.000000e+000 0.000000e+000 3.192275e-008
      outer loop
         vertex -6.000000e+000 1.700000e+001 1.478981e+001
         vertex -6.000000e+000 2.000000e+001 2.634753e-007
         vertex -6.000000e+000 -1.700000e+001 1.478981e+001
      endloop
   endfacet
   facet normal -1.000000e+000 0.000000e+000 3.192275e-008
      outer loop
         vertex -6.000000e+000 1.700000e+001 1.478981e+001
         vertex -6.000000e+000 -1.700000e+001 1.478981e+001
         vertex -6.000000e+000 1.700000e+001 3.767369e+001
      endloop
   endfacet
   facet normal -1.000000e+000 0.000000e+000 3.192275e-008
      outer loop
         vertex -6.000000e+000 1.700000e+001 3.767369e+001
         vertex -6.000000e+000 -1.700000e+001 1.478981e+001
         vertex -6.000000e+000 -1.700000e+001 3.767369e+001
      endloop
   endfacet
   facet normal -1.000000e+000 0.000000e+000 3.192275e-008
      outer loop
         vertex -6.000000e+000 1.700000e+001 3.767369e+001
         vertex -6.000000e+000 -1.700000e+001 3.767369e+001
         vertex -6.000000e+000 1.200000e+001 4.481443e+001
      endloop
   endfacet
   facet normal -1.000000e+000 0.000000e+000 3.192275e-008
      outer loop
         vertex -6.000000e+000 1.200000e+001 4.481443e+001
         vertex -6.000000e+000 -1.700000e+001 3.767369e+001
         vertex -6.000000e+000 -1.200000e+001 4.481443e+001
      endloop
   endfacet
   facet normal -1.000000e+000 0.000000e+000 3.192275e-008
      outer loop
         vertex -6.000000e+000 1.200000e+001 4.481443e+001
         vertex -6.000000e+000 -1.200000e+001 4.481443e+001
         vertex -6.000000e+000 1.200000e+001 5.720000e+001
      endloop
   endfacet
   facet normal -1.000000e+000 0.000000e+000 3.192275e-008
      outer loop
         vertex -6.000000e+000 1.200000e+001 5.720000e+001
         vertex -6.000000e+000 -1.200000e+001 4.481443e+001
         vertex -6.000000e+000 -1.200000e+001 5.720000e+001
      endloop
   endfacet
   facet normal -9.983120e-001 0.000000e+000 5.807913e-002
      outer loop
         vertex -6.000000e+000 1.200000e+001 5.720000e+001
         vertex -6.000000e+000 -1.200000e+001 5.720000e+001
         vertex -5.908845e+000 -1.200000e+001 5.824189e+001
      endloop
   endfacet
   facet normal -9.932307e-001 0.000000e+000 1.161583e-001
      outer loop
         vertex -6.000000e+000 1.200000e+001 5.720000e+001
         vertex -5.908845e+000 -1.200000e+001 5.824189e+001
         vertex -5.908845e+000 1.200000e+001 5.824189e+001
      endloop
   endfacet
   facet normal -9.730601e-001 0.000000e+000 2.305518e-001
      outer loop
         vertex -5.908845e+000 1.200000e+001 5.824189e+001
         vertex -5.908845e+000 -1.200000e+001 5.824189e+001
         vertex -5.638154e+000 -1.200000e+001 5.925212e+001
      endloop
   endfacet
   facet normal -9.579707e-001 0.000000e+000 2.868662e-001
      outer loop
         vertex -5.908845e+000 1.200000e+001 5.824189e+001
         vertex -5.638154e+000 -1.200000e+001 5.925212e+001
         vertex -5.638154e+000 1.200000e+001 5.925212e+001
      endloop
   endfacet
   facet normal -9.182422e-001 0.000000e+000 3.960193e-001
      outer loop
         vertex -5.638154e+000 1.200000e+001 5.925212e+001
         vertex -5.638154e+000 -1.200000e+001 5.925212e+001
         vertex -5.196152e+000 -1.200000e+001 6.020000e+001
      endloop
   endfacet
   facet normal -8.936031e-001 0.000000e+000 4.488580e-001
      outer loop
         vertex -5.638154e+000 1.200000e+001 5.925212e+001
         vertex -5.196152e+000 -1.200000e+001 6.020000e+001
         vertex -5.196152e+000 1.200000e+001 6.020000e+001
      endloop
   endfacet
   facet normal -8.355240e-001 0.000000e+000 5.494540e-001
      outer loop
         vertex -5.196152e+000 1.200000e+001 6.020000e+001
         vertex -5.196152e+000 -1.200000e+001 6.020000e+001
         vertex -4.596268e+000 -1.200000e+001 6.105672e+001
      endloop
   endfacet
   facet normal -8.020839e-001 0.000000e+000 5.972114e-001
      outer loop
         vertex -5.196152e+000 1.200000e+001 6.020000e+001
         vertex -4.596268e+000 -1.200000e+001 6.105672e+001
         vertex -4.596268e+000 1.200000e+001 6.105672e+001
      endloop
   endfacet
   facet normal -7.274188e-001 0.000000e+000 6.861938e-001
      outer loop
         vertex -4.596268e+000 1.200000e+001 6.105672e+001
         vertex -4.596268e+000 -1.200000e+001 6.105672e+001
         vertex -3.856726e+000 -1.200000e+001 6.179627e+001
      endloop
   endfacet
   facet normal -6.861938e-001 0.000000e+000 7.274188e-001
      outer loop
         vertex -4.596268e+000 1.200000e+001 6.105672e+001
         vertex -3.856726e+000 -1.200000e+001 6.179627e+001
         vertex -3.856726e+000 1.200000e+001 6.179627e+001
      endloop
   endfacet
   facet normal -5.972114e-001 0.000000e+000 8.020839e-001
      outer loop
         vertex -3.856726e+000 1.200000e+001 6.179627e+001
         vertex -3.856726e+000 -1.200000e+001 6.179627e+001
         vertex -2.999998e+000 -1.200000e+001 6.239615e+001
      endloop
   endfacet
   facet normal -5.494540e-001 0.000000e+000 8.355240e-001
      outer loop
         vertex -3.856726e+000 1.200000e+001 6.179627e+001
         vertex -2.999998e+000 -1.200000e+001 6.239615e+001
         vertex -2.999998e+000 1.200000e+001 6.239615e+001
      endloop
   endfacet
   facet normal -4.488580e-001 0.000000e+000 8.936031e-001
      outer loop
         vertex -2.999998e+000 1.200000e+001 6.239615e+001
         vertex -2.999998e+000 -1.200000e+001 6.239615e+001
         vertex -2.052122e+000 -1.200000e+001 6.283815e+001
      endloop
   endfacet
   facet normal -3.960193e-001 0.000000e+000 9.182422e-001
      outer loop
         vertex -2.999998e+000 1.200000e+001 6.239615e+001
         vertex -2.052122e+000 -1.200000e+001 6.283815e+001
         vertex -2.052122e+000 1.200000e+001 6.283815e+001
      endloop
   endfacet
   facet normal -2.868662e-001 0.000000e+000 9.579706e-001
      outer loop
         vertex -2.052122e+000 1.200000e+001 6.283815e+001
         vertex -2.052122e+000 -1.200000e+001 6.283815e+001
         vertex -1.041888e+000 -1.200000e+001 6.310884e+001
      endloop
   endfacet
   facet normal -2.305519e-001 0.000000e+000 9.730600e-001
      outer loop
         vertex -2.052122e+000 1.200000e+001 6.283815e+001
         vertex -1.041888e+000 -1.200000e+001 6.310884e+001
         vertex -1.041888e+000 1.200000e+001 6.310884e+001
      endloop
   endfacet
   facet normal -1.161583e-001 0.000000e+000 9.932307e-001
      outer loop
         vertex -1.041888e+000 1.200000e+001 6.310884e+001
         vertex -1.041888e+000 -1.200000e+001 6.310884e+001
         vertex 1.175252e-007 -1.200000e+001 6.320000e+001
      endloop
   endfacet
   facet normal -5.807912e-002 0.000000e+000 9.983120e-001
      outer loop
         vertex -1.041888e+000 1.200000e+001 6.310884e+001
         vertex 1.175252e-007 -1.200000e+001 6.320000e+001
         vertex 1.175252e-007 1.200000e+001 6.320000e+001
      endloop
   endfacet
   facet normal 5.807913e-002 0.000000e+000 9.983120e-001
      outer loop
         vertex 1.175252e-007 1.200000e+001 6.320000e+001
         vertex 1.175252e-007 -1.200000e+001 6.320000e+001
         vertex 1.041888e+000 -1.200000e+001 6.310884e+001
      endloop
   endfacet
   facet normal 1.161583e-001 0.000000e+000 9.932307e-001
      outer loop
         vertex 1.175252e-007 1.200000e+001 6.320000e+001
         vertex 1.041888e+000 -1.200000e+001 6.310884e+001
         vertex 1.041888e+000 1.200000e+001 6.310884e+001
      endloop
   endfacet
   facet normal 2.305518e-001 0.000000e+000 9.730601e-001
      outer loop
         vertex 1.041888e+000 1.200000e+001 6.310884e+001
         vertex 1.041888e+000 -1.200000e+001 6.310884e+001
         vertex 2.052119e+000 -1.200000e+001 6.283816e+001
      endloop
   endfacet
   facet normal 2.868662e-001 0.000000e+000 9.579707e-001
      outer loop
         vertex 1.041888e+000 1.200000e+001 6.310884e+001
         vertex 2.052119e+000 -1.200000e+001 6.283816e+001
         vertex 2.052119e+000 1.200000e+001 6.283816e+001
      endloop
   endfacet
   facet normal 3.960193e-001 0.000000e+000 9.182422e-001
      outer loop
         vertex 2.052119e+000 1.200000e+001 6.283816e+001
         vertex 2.052119e+000 -1.200000e+001 6.283816e+001
         vertex 3.000000e+000 -1.200000e+001 6.239615e+001
      endloop
   endfacet
   facet normal 4.488580e-001 0.000000e+000 8.936031e-001
      outer loop
         vertex 2.052119e+000 1.200000e+001 6.283816e+001
         vertex 3.000000e+000 -1.200000e+001 6.239615e+001
         vertex 3.000000e+000 1.200000e+001 6.239615e+001
      endloop
   endfacet
   facet normal 5.494540e-001 0.000000e+000 8.355240e-001
      outer loop
         vertex 3.000000e+000 1.200000e+001 6.239615e+001
         vertex 3.000000e+000 -1.200000e+001 6.239615e+001
         vertex 3.856725e+000 -1.200000e+001 6.179627e+001
      endloop
   endfacet
   facet normal 5.972114e-001 0.000000e+000 8.020839e-001
      outer loop
         vertex 3.000000e+000 1.200000e+001 6.239615e+001
         vertex 3.856725e+000 -1.200000e+001 6.179627e+001
         vertex 3.856725e+000 1.200000e+001 6.179627e+001
      endloop
   endfacet
   facet normal 6.861938e-001 0.000000e+000 7.274188e-001
      outer loop
         vertex 3.856725e+000 1.200000e+001 6.179627e+001
         vertex 3.856725e+000 -1.200000e+001 6.179627e+001
         vertex 4.596265e+000 -1.200000e+001 6.105672e+001
      endloop
   endfacet
   facet normal 7.274188e-001 0.000000e+000 6.861938e-001
      outer loop
         vertex 3.856725e+000 1.200000e+001 6.179627e+001
         vertex 4.596265e+000 -1.200000e+001 6.105672e+001
         vertex 4.596265e+000 1.200000e+001 6.105672e+001
      endloop
   endfacet
   facet normal 8.020839e-001 0.000000e+000 5.972114e-001
      outer loop
         vertex 4.596265e+000 1.200000e+001 6.105672e+001
         vertex 4.596265e+000 -1.200000e+001 6.105672e+001
         vertex 5.196155e+000 -1.200000e+001 6.020000e+001
      endloop
   endfacet
   facet normal 8.355240e-001 0.000000e+000 5.494540e-001
      outer loop
         vertex 4.596265e+000 1.200000e+001 6.105672e+001
         vertex 5.196155e+000 -1.200000e+001 6.020000e+001
         vertex 5.196155e+000 1.200000e+001 6.020000e+001
      endloop
   endfacet
   facet normal 8.936031e-001 0.000000e+000 4.488580e-001
      outer loop
         vertex 5.196155e+000 1.200000e+001 6.020000e+001
         vertex 5.196155e+000 -1.200000e+001 6.020000e+001
         vertex 5.638155e+000 -1.200000e+001 5.925212e+001
      endloop
   endfacet
   facet normal 9.182422e-001 0.000000e+000 3.960193e-001
      outer loop
         vertex 5.196155e+000 1.200000e+001 6.020000e+001
         vertex 5.638155e+000 -1.200000e+001 5.925212e+001
         vertex 5.638155e+000 1.200000e+001 5.925212e+001
      endloop
   endfacet
   facet normal 9.579706e-001 0.000000e+000 2.868662e-001
      outer loop
         vertex 5.638155e+000 1.200000e+001 5.925212e+001
         vertex 5.638155e+000 -1.200000e+001 5.925212e+001
         vertex 5.908845e+000 -1.200000e+001 5.824189e+001
      endloop
   endfacet
   facet normal 9.730600e-001 0.000000e+000 2.305519e-001
      outer loop
         vertex 5.638155e+000 1.200000e+001 5.925212e+001
         vertex 5.908845e+000 -1.200000e+001 5.824189e+001
         vertex 5.908845e+000 1.200000e+001 5.824189e+001
      endloop
   endfacet
   facet normal 9.932307e-001 0.000000e+000 1.161583e-001
      outer loop
         vertex 5.908845e+000 1.200000e+001 5.824189e+001
         vertex 5.908845e+000 -1.200000e+001 5.824189e+001
         vertex 6.000000e+000 -1.200000e+001 5.720000e+001
      endloop
   endfacet
   facet normal 9.983120e-001 0.000000e+000 5.807912e-002
      outer loop
         vertex 5.908845e+000 1.200000e+001 5.824189e+001
         vertex 6.000000e+000 -1.200000e+001 5.720000e+001
         vertex 6.000000e+000 1.200000e+001 5.720000e+001
      endloop
   endfacet
   facet normal 1.000000e+000 0.000000e+000 -3.192275e-008
      outer loop
         vertex 6.000000e+000 -2.000000e+001 1.050536e+001
         vertex 6.000000e+000 -2.000000e+001 -2.634753e-007
         vertex 6.000000e+000 -1.700000e+001 1.478981e+001
      endloop
   endfacet
   facet normal 1.000000e+000 0.000000e+000 -3.192275e-008
      outer loop
         vertex 6.000000e+000 -1.700000e+001 1.478981e+001
         vertex 6.000000e+000 -2.000000e+001 -2.634753e-007
         vertex 6.000000e+000 2.000000e+001 -2.634753e-007
      endloop
   endfacet
   facet normal 1.000000e+000 0.000000e+000 -3.192275e-008
      outer loop
         vertex 6.000000e+000 -1.700000e+001 1.478981e+001
         vertex 6.000000e+000 2.000000e+001 -2.634753e-007
         vertex 6.000000e+000 2.000000e+001 1.050536e+001
      endloop
   endfacet
   facet normal 1.000000e+000 0.000000e+000 -3.192275e-008
      outer loop
         vertex 6.000000e+000 1.200000e+001 4.481443e+001
         vertex 6.000000e+000 1.200000e+001 5.720000e+001
         vertex 6.000000e+000 -1.200000e+001 5.720000e+001
      endloop
   endfacet
   facet normal 1.000000e+000 0.000000e+000 -3.192275e-008
      outer loop
         vertex 6.000000e+000 -1.200000e+001 5.720000e+001
         vertex 6.000000e+000 -1.200000e+001 4.481443e+001
         vertex 6.000000e+000 1.200000e+001 4.481443e+001
      endloop
   endfacet
   facet normal 1.000000e+000 0.000000e+000 -3.192275e-008
      outer loop
         vertex 6.000000e+000 1.200000e+001 4.481443e+001
         vertex 6.000000e+000 -1.200000e+001 4.481443e+001
         vertex 5.999999e+000 -1.700000e+001 3.767369e+001
      endloop
   endfacet
   facet normal 1.000000e+000 0.000000e+000 -3.192275e-008
      outer loop
         vertex 6.000000e+000 1.200000e+001 4.481443e+001
         vertex 5.999999e+000 -1.700000e+001 3.767369e+001
         vertex 5.999999e+000 1.700000e+001 3.767369e+001
      endloop
   endfacet
   facet normal 1.000000e+000 0.000000e+000 -3.192275e-008
      outer loop
         vertex 5.999999e+000 1.700000e+001 3.767369e+001
         vertex 5.999999e+000 -1.700000e+001 3.767369e+001
         vertex 6.000000e+000 -1.700000e+001 1.478981e+001
      endloop
   endfacet
   facet normal 1.000000e+000 0.000000e+000 -3.192275e-008
      outer loop
         vertex 5.999999e+000 1.700000e+001 3.767369e+001
         vertex 6.000000e+000 -1.700000e+001 1.478981e+001
         vertex 6.000000e+000 1.700000e+001 1.478981e+001
      endloop
   endfacet
   facet normal 1.000000e+000 0.000000e+000 -3.192275e-008
      outer loop
         vertex 6.000000e+000 1.700000e+001 1.478981e+001
         vertex 6.000000e+000 -1.700000e+001 1.478981e+001
         vertex 6.000000e+000 2.000000e+001 1.050536e+001
      endloop
   endfacet
   facet normal 0.000000e+000 1.000000e+000 0.000000e+000
      outer loop
         vertex -6.000000e+000 2.000000e+001 1.050536e+001
         vertex 6.000000e+000 2.000000e+001 1.050536e+001
         vertex -6.000000e+000 2.000000e+001 2.634753e-007
      endloop
   endfacet
   facet normal 0.000000e+000 1.000000e+000 0.000000e+000
      outer loop
         vertex -6.000000e+000 2.000000e+001 2.634753e-007
         vertex 6.000000e+000 2.000000e+001 1.050536e+001
         vertex 6.000000e+000 2.000000e+001 -2.634753e-007
      endloop
   endfacet
   facet normal 0.000000e+000 1.000000e+000 0.000000e+000
      outer loop
         vertex -6.000000e+000 2.000000e+001 2.634753e-007
         vertex 6.000000e+000 2.000000e+001 -2.634753e-007
         vertex 5.908846e+000 2.000000e+001 -1.041889e+000
      endloop
   endfacet
   facet normal 0.000000e+000 1.000000e+000 0.000000e+000
      outer loop
         vertex 5.908846e+000 2.000000e+001 -1.041889e+000
         vertex 5.638155e+000 2.000000e+001 -2.052121e+000
         vertex -6.000000e+000 2.000000e+001 2.634753e-007
      endloop
   endfacet
   facet normal 0.000000e+000 1.000000e+000 0.000000e+000
      outer loop
         vertex -6.000000e+000 2.000000e+001 2.634753e-007
         vertex 5.638155e+000 2.000000e+001 -2.052121e+000
         vertex 5.196153e+000 2.000000e+001 -3.000000e+000
      endloop
   endfacet
   facet normal 0.000000e+000 1.000000e+000 0.000000e+000
      outer loop
         vertex -6.000000e+000 2.000000e+001 2.634753e-007
         vertex 5.196153e+000 2.000000e+001 -3.000000e+000
         vertex 4.596266e+000 2.000000e+001 -3.856725e+000
      endloop
   endfacet
   facet normal 0.000000e+000 1.000000e+000 0.000000e+000
      outer loop
         vertex -1.041889e+000 2.000000e+001 -5.908846e+000
         vertex -2.052121e+000 2.000000e+001 -5.638155e+000
         vertex -6.000000e+000 2.000000e+001 2.634753e-007
      endloop
   endfacet
   facet normal 0.000000e+000 1.000000e+000 0.000000e+000
      outer loop
         vertex 4.596266e+000 2.000000e+001 -3.856725e+000
         vertex 3.856726e+000 2.000000e+001 -4.596267e+000
         vertex -6.000000e+000 2.000000e+001 2.634753e-007
      endloop
   endfacet
   facet normal 0.000000e+000 1.000000e+000 0.000000e+000
      outer loop
         vertex -6.000000e+000 2.000000e+001 2.634753e-007
         vertex 3.856726e+000 2.000000e+001 -4.596267e+000
         vertex 3.000000e+000 2.000000e+001 -5.196152e+000
      endloop
   endfacet
   facet normal 0.000000e+000 1.000000e+000 0.000000e+000
      outer loop
         vertex -6.000000e+000 2.000000e+001 2.634753e-007
         vertex 3.000000e+000 2.000000e+001 -5.196152e+000
         vertex 2.052121e+000 2.000000e+001 -5.638155e+000
      endloop
   endfacet
   facet normal 0.000000e+000 1.000000e+000 0.000000e+000
      outer loop
         vertex 2.052121e+000 2.000000e+001 -5.638155e+000
         vertex 1.041889e+000 2.000000e+001 -5.908846e+000
         vertex -6.000000e+000 2.000000e+001 2.634753e-007
      endloop
   endfacet
   facet normal 0.000000e+000 1.000000e+000 0.000000e+000
      outer loop
         vertex -6.000000e+000 2.000000e+001 2.634753e-007
         vertex 1.041889e+000 2.000000e+001 -5.908846e+000
         vertex -2.634753e-007 2.000000e+001 -6.000000e+000
      endloop
   endfacet
   facet normal 0.000000e+000 1.000000e+000 0.000000e+000
      outer loop
         vertex -6.000000e+000 2.000000e+001 2.634753e-007
         vertex -2.634753e-007 2.000000e+001 -6.000000e+000
         vertex -1.041889e+000 2.000000e+001 -5.908846e+000
      endloop
   endfacet
   facet normal 0.000000e+000 1.000000e+000 0.000000e+000
      outer loop
         vertex -2.052121e+000 2.000000e+001 -5.638155e+000
         vertex -3.000000e+000 2.000000e+001 -5.196153e+000
         vertex -6.000000e+000 2.000000e+001 2.634753e-007
      endloop
   endfacet
   facet normal 0.000000e+000 1.000000e+000 0.000000e+000
      outer loop
         vertex -6.000000e+000 2.000000e+001 2.634753e-007
         vertex -3.000000e+000 2.000000e+001 -5.196153e+000
         vertex -3.856725e+000 2.000000e+001 -4.596266e+000
      endloop
   endfacet
   facet normal 0.000000e+000 1.000000e+000 0.000000e+000
      outer loop
         vertex -6.000000e+000 2.000000e+001 2.634753e-007
         vertex -3.856725e+000 2.000000e+001 -4.596266e+000
         vertex -4.596267e+000 2.000000e+001 -3.856726e+000
      endloop
   endfacet
   facet normal 0.000000e+000 1.000000e+000 0.000000e+000
      outer loop
         vertex -5.196152e+000 2.000000e+001 -3.000000e+000
         vertex -5.638155e+000 2.000000e+001 -2.052121e+000
         vertex -4.596267e+000 2.000000e+001 -3.856726e+000
      endloop
   endfacet
   facet normal 0.000000e+000 1.000000e+000 0.000000e+000
      outer loop
         vertex -4.596267e+000 2.000000e+001 -3.856726e+000
         vertex -5.638155e+000 2.000000e+001 -2.052121e+000
         vertex -5.908846e+000 2.000000e+001 -1.041889e+000
      endloop
   endfacet
   facet normal 0.000000e+000 1.000000e+000 0.000000e+000
      outer loop
         vertex -4.596267e+000 2.000000e+001 -3.856726e+000
         vertex -5.908846e+000 2.000000e+001 -1.041889e+000
         vertex -6.000000e+000 2.000000e+001 2.634753e-007
      endloop
   endfacet
   facet normal 9.983120e-001 0.000000e+000 -5.807913e-002
      outer loop
         vertex 6.000000e+000 2.000000e+001 -2.634753e-007
         vertex 6.000000e+000 -2.000000e+001 -2.634753e-007
         vertex 5.908846e+000 -2.000000e+001 -1.041889e+000
      endloop
   endfacet
   facet normal 9.932307e-001 0.000000e+000 -1.161583e-001
      outer loop
         vertex 6.000000e+000 2.000000e+001 -2.634753e-007
         vertex 5.908846e+000 -2.000000e+001 -1.041889e+000
         vertex 5.908846e+000 2.000000e+001 -1.041889e+000
      endloop
   endfacet
   facet normal 9.730601e-001 0.000000e+000 -2.305518e-001
      outer loop
         vertex 5.908846e+000 2.000000e+001 -1.041889e+000
         vertex 5.908846e+000 -2.000000e+001 -1.041889e+000
         vertex 5.638155e+000 -2.000000e+001 -2.052121e+000
      endloop
   endfacet
   facet normal 9.579707e-001 0.000000e+000 -2.868662e-001
      outer loop
         vertex 5.908846e+000 2.000000e+001 -1.041889e+000
         vertex 5.638155e+000 -2.000000e+001 -2.052121e+000
         vertex 5.638155e+000 2.000000e+001 -2.052121e+000
      endloop
   endfacet
   facet normal 9.182422e-001 0.000000e+000 -3.960193e-001
      outer loop
         vertex 5.638155e+000 2.000000e+001 -2.052121e+000
         vertex 5.638155e+000 -2.000000e+001 -2.052121e+000
         vertex 5.196153e+000 -2.000000e+001 -3.000000e+000
      endloop
   endfacet
   facet normal 8.936031e-001 0.000000e+000 -4.488580e-001
      outer loop
         vertex 5.638155e+000 2.000000e+001 -2.052121e+000
         vertex 5.196153e+000 -2.000000e+001 -3.000000e+000
         vertex 5.196153e+000 2.000000e+001 -3.000000e+000
      endloop
   endfacet
   facet normal 8.355240e-001 0.000000e+000 -5.494540e-001
      outer loop
         vertex 5.196153e+000 2.000000e+001 -3.000000e+000
         vertex 5.196153e+000 -2.000000e+001 -3.000000e+000
         vertex 4.596266e+000 -2.000000e+001 -3.856725e+000
      endloop
   endfacet
   facet normal 8.020839e-001 0.000000e+000 -5.972114e-001
      outer loop
         vertex 5.196153e+000 2.000000e+001 -3.000000e+000
         vertex 4.596266e+000 -2.000000e+001 -3.856725e+000
         vertex 4.596266e+000 2.000000e+001 -3.856725e+000
      endloop
   endfacet
   facet normal 7.274188e-001 0.000000e+000 -6.861938e-001
      outer loop
         vertex 4.596266e+000 2.000000e+001 -3.856725e+000
         vertex 4.596266e+000 -2.000000e+001 -3.856725e+000
         vertex 3.856726e+000 -2.000000e+001 -4.596267e+000
      endloop
   endfacet
   facet normal 6.861938e-001 0.000000e+000 -7.274188e-001
      outer loop
         vertex 4.596266e+000 2.000000e+001 -3.856725e+000
         vertex 3.856726e+000 -2.000000e+001 -4.596267e+000
         vertex 3.856726e+000 2.000000e+001 -4.596267e+000
      endloop
   endfacet
   facet normal 5.972114e-001 0.000000e+000 -8.020839e-001
      outer loop
         vertex 3.856726e+000 2.000000e+001 -4.596267e+000
         vertex 3.856726e+000 -2.000000e+001 -4.596267e+000
         vertex 3.000000e+000 -2.000000e+001 -5.196152e+000
      endloop
   endfacet
   facet normal 5.494540e-001 0.000000e+000 -8.355240e-001
      outer loop
         vertex 3.856726e+000 2.000000e+001 -4.596267e+000
         vertex 3.000000e+000 -2.000000e+001 -5.196152e+000
         vertex 3.000000e+000 2.000000e+001 -5.196152e+000
      endloop
   endfacet
   facet normal 4.488580e-001 0.000000e+000 -8.936031e-001
      outer loop
         vertex 3.000000e+000 2.000000e+001 -5.196152e+000
         vertex 3.000000e+000 -2.000000e+001 -5.196152e+000
         vertex 2.052121e+000 -2.000000e+001 -5.638155e+000
      endloop
   endfacet
   facet normal 3.960193e-001 0.000000e+000 -9.182422e-001
      outer loop
         vertex 3.000000e+000 2.000000e+001 -5.196152e+000
         vertex 2.052121e+000 -2.000000e+001 -5.638155e+000
         vertex 2.052121e+000 2.000000e+001 -5.638155e+000
      endloop
   endfacet
   facet normal 2.868662e-001 0.000000e+000 -9.579706e-001
      outer loop
         vertex 2.052121e+000 2.000000e+001 -5.638155e+000
         vertex 2.052121e+000 -2.000000e+001 -5.638155e+000
         vertex 1.041889e+000 -2.000000e+001 -5.908846e+000
      endloop
   endfacet
   facet normal 2.305519e-001 0.000000e+000 -9.730600e-001
      outer loop
         vertex 2.052121e+000 2.000000e+001 -5.638155e+000
         vertex 1.041889e+000 -2.000000e+001 -5.908846e+000
         vertex 1.041889e+000 2.000000e+001 -5.908846e+000
      endloop
   endfacet
   facet normal 1.161583e-001 0.000000e+000 -9.932307e-001
      outer loop
         vertex 1.041889e+000 2.000000e+001 -5.908846e+000
         vertex 1.041889e+000 -2.000000e+001 -5.908846e+000
         vertex -2.634753e-007 -2.000000e+001 -6.000000e+000
      endloop
   endfacet
   facet normal 5.807912e-002 0.000000e+000 -9.983120e-001
      outer loop
         vertex 1.041889e+000 2.000000e+001 -5.908846e+000
         vertex -2.634753e-007 -2.000000e+001 -6.000000e+000
         vertex -2.634753e-007 2.000000e+001 -6.000000e+000
      endloop
   endfacet
   facet normal -5.807913e-002 0.000000e+000 -9.983120e-001
      outer loop
         vertex -2.634753e-007 2.000000e+001 -6.000000e+000
         vertex -2.634753e-007 -2.000000e+001 -6.000000e+000
         vertex -1.041889e+000 -2.000000e+001 -5.908846e+000
      endloop
   endfacet
   facet normal -1.161583e-001 0.000000e+000 -9.932307e-001
      outer loop
         vertex -2.634753e-007 2.000000e+001 -6.000000e+000
         vertex -1.041889e+000 -2.000000e+001 -5.908846e+000
         vertex -1.041889e+000 2.000000e+001 -5.908846e+000
      endloop
   endfacet
   facet normal -2.305518e-001 0.000000e+000 -9.730601e-001
      outer loop
         vertex -1.041889e+000 2.000000e+001 -5.908846e+000
         vertex -1.041889e+000 -2.000000e+001 -5.908846e+000
         vertex -2.052121e+000 -2.000000e+001 -5.638155e+000
      endloop
   endfacet
   facet normal -2.868662e-001 0.000000e+000 -9.579707e-001
      outer loop
         vertex -1.041889e+000 2.000000e+001 -5.908846e+000
         vertex -2.052121e+000 -2.000000e+001 -5.638155e+000
         vertex -2.052121e+000 2.000000e+001 -5.638155e+000
      endloop
   endfacet
   facet normal -3.960193e-001 0.000000e+000 -9.182422e-001
      outer loop
         vertex -2.052121e+000 2.000000e+001 -5.638155e+000
         vertex -2.052121e+000 -2.000000e+001 -5.638155e+000
         vertex -3.000000e+000 -2.000000e+001 -5.196153e+000
      endloop
   endfacet
   facet normal -4.488580e-001 0.000000e+000 -8.936031e-001
      outer loop
         vertex -2.052121e+000 2.000000e+001 -5.638155e+000
         vertex -3.000000e+000 -2.000000e+001 -5.196153e+000
         vertex -3.000000e+000 2.000000e+001 -5.196153e+000
      endloop
   endfacet
   facet normal -5.494540e-001 0.000000e+000 -8.355240e-001
      outer loop
         vertex -3.000000e+000 2.000000e+001 -5.196153e+000
         vertex -3.000000e+000 -2.000000e+001 -5.196153e+000
         vertex -3.856725e+000 -2.000000e+001 -4.596266e+000
      endloop
   endfacet
   facet normal -5.972114e-001 0.000000e+000 -8.020839e-001
      outer loop
         vertex -3.000000e+000 2.000000e+001 -5.196153e+000
         vertex -3.856725e+000 -2.000000e+001 -4.596266e+000
         vertex -3.856725e+000 2.000000e+001 -4.596266e+000
      endloop
   endfacet
   facet normal -6.861938e-001 0.000000e+000 -7.274188e-001
      outer loop
         vertex -3.856725e+000 2.000000e+001 -4.596266e+000
         vertex -3.856725e+000 -2.000000e+001 -4.596266e+000
         vertex -4.596267e+000 -2.000000e+001 -3.856726e+000
      endloop
   endfacet
   facet normal -7.274188e-001 0.000000e+000 -6.861938e-001
      outer loop
         vertex -3.856725e+000 2.000000e+001 -4.596266e+000
         vertex -4.596267e+000 -2.000000e+001 -3.856726e+000
         vertex -4.596267e+000 2.000000e+001 -3.856726e+000
      endloop
   endfacet
   facet normal -8.020839e-001 0.000000e+000 -5.972114e-001
      outer loop
         vertex -4.596267e+000 2.000000e+001 -3.856726e+000
         vertex -4.596267e+000 -2.000000e+001 -3.856726e+000
         vertex -5.196152e+000 -2.000000e+001 -3.000000e+000
      endloop
   endfacet
   facet normal -8.355240e-001 0.000000e+000 -5.494540e-001
      outer loop
         vertex -4.596267e+000 2.000000e+001 -3.856726e+000
         vertex -5.196152e+000 -2.000000e+001 -3.000000e+000
         vertex -5.196152e+000 2.000000e+001 -3.000000e+000
      endloop
   endfacet
   facet normal -8.936031e-001 0.000000e+000 -4.488580e-001
      outer loop
         vertex -5.196152e+000 2.000000e+001 -3.000000e+000
         vertex -5.196152e+000 -2.000000e+001 -3.000000e+000
         vertex -5.638155e+000 -2.000000e+001 -2.052121e+000
      endloop
   endfacet
   facet normal -9.182422e-001 0.000000e+000 -3.960193e-001
      outer loop
         vertex -5.196152e+000 2.000000e+001 -3.000000e+000
         vertex -5.638155e+000 -2.000000e+001 -2.052121e+000
         vertex -5.638155e+000 2.000000e+001 -2.052121e+000
      endloop
   endfacet
   facet normal -9.579706e-001 0.000000e+000 -2.868662e-001
      outer loop
         vertex -5.638155e+000 2.000000e+001 -2.052121e+000
         vertex -5.638155e+000 -2.000000e+001 -2.052121e+000
         vertex -5.908846e+000 -2.000000e+001 -1.041889e+000
      endloop
   endfacet
   facet normal -9.730600e-001 0.000000e+000 -2.305519e-001
      outer loop
         vertex -5.638155e+000 2.000000e+001 -2.052121e+000
         vertex -5.908846e+000 -2.000000e+001 -1.041889e+000
         vertex -5.908846e+000 2.000000e+001 -1.041889e+000
      endloop
   endfacet
   facet normal -9.932307e-001 0.000000e+000 -1.161583e-001
      outer loop
         vertex -5.908846e+000 2.000000e+001 -1.041889e+000
         vertex -5.908846e+000 -2.000000e+001 -1.041889e+000
         vertex -6.000000e+000 -2.000000e+001 2.634753e-007
      endloop
   endfacet
   facet normal -9.983120e-001 0.000000e+000 -5.807912e-002
      outer loop
         vertex -5.908846e+000 2.000000e+001 -1.041889e+000
         vertex -6.000000e+000 -2.000000e+001 2.634753e-007
         vertex -6.000000e+000 2.000000e+001 2.634753e-007
      endloop
   endfacet
   facet normal 0.000000e+000 -1.000000e+000 0.000000e+000
      outer loop
         vertex 6.000000e+000 -2.000000e+001 1.050536e+001
         vertex -6.000000e+000 -2.000000e+001 1.050536e+001
         vertex 6.000000e+000 -2.000000e+001 -2.634753e-007
      endloop
   endfacet
   facet normal 0.000000e+000 -1.000000e+000 0.000000e+000
      outer loop
         vertex 6.000000e+000 -2.000000e+001 -2.634753e-007
         vertex -6.000000e+000 -2.000000e+001 1.050536e+001
         vertex -6.000000e+000 -2.000000e+001 2.634753e-007
      endloop
   endfacet
   facet normal 0.000000e+000 -1.000000e+000 0.000000e+000
      outer loop
         vertex 6.000000e+000 -2.000000e+001 -2.634753e-007
         vertex -6.000000e+000 -2.000000e+001 2.634753e-007
         vertex -5.908846e+000 -2.000000e+001 -1.041889e+000
      endloop
   endfacet
   facet normal 0.000000e+000 -1.000000e+000 0.000000e+000
      outer loop
         vertex -5.908846e+000 -2.000000e+001 -1.041889e+000
         vertex -5.638155e+000 -2.000000e+001 -2.052121e+000
         vertex 6.000000e+000 -2.000000e+001 -2.634753e-007
      endloop
   endfacet
   facet normal 0.000000e+000 -1.000000e+000 0.000000e+000
      outer loop
         vertex 6.000000e+000 -2.000000e+001 -2.634753e-007
         vertex -5.638155e+000 -2.000000e+001 -2.052121e+000
         vertex -5.196152e+000 -2.000000e+001 -3.000000e+000
      endloop
   endfacet
   facet normal 0.000000e+000 -1.000000e+000 0.000000e+000
      outer loop
         vertex 6.000000e+000 -2.000000e+001 -2.634753e-007
         vertex -5.196152e+000 -2.000000e+001 -3.000000e+000
         vertex -4.596267e+000 -2.000000e+001 -3.856726e+000
      endloop
   endfacet
   facet normal 0.000000e+000 -1.000000e+000 0.000000e+000
      outer loop
         vertex -4.596267e+000 -2.000000e+001 -3.856726e+000
         vertex -3.856725e+000 -2.000000e+001 -4.596266e+000
         vertex 6.000000e+000 -2.000000e+001 -2.634753e-007
      endloop
   endfacet
   facet normal 0.000000e+000 -1.000000e+000 0.000000e+000
      outer loop
         vertex 6.000000e+000 -2.000000e+001 -2.634753e-007
         vertex -3.856725e+000 -2.000000e+001 -4.596266e+000
         vertex -3.000000e+000 -2.000000e+001 -5.196153e+000
      endloop
   endfacet
   facet normal 0.000000e+000 -1.000000e+000 0.000000e+000
      outer loop
         vertex 6.000000e+000 -2.000000e+001 -2.634753e-007
         vertex -3.000000e+000 -2.000000e+001 -5.196153e+000
         vertex -2.052121e+000 -2.000000e+001 -5.638155e+000
      endloop
   endfacet
   facet normal 0.000000e+000 -1.000000e+000 0.000000e+000
      outer loop
         vertex 3.856726e+000 -2.000000e+001 -4.596267e+000
         vertex 4.596266e+000 -2.000000e+001 -3.856725e+000
         vertex -2.634753e-007 -2.000000e+001 -6.000000e+000
      endloop
   endfacet
   facet normal 0.000000e+000 -1.000000e+000 0.000000e+000
      outer loop
         vertex -2.634753e-007 -2.000000e+001 -6.000000e+000
         vertex 4.596266e+000 -2.000000e+001 -3.856725e+000
         vertex 5.196153e+000 -2.000000e+001 -3.000000e+000
      endloop
   endfacet
   facet normal 0.000000e+000 -1.000000e+000 0.000000e+000
      outer loop
         vertex -2.634753e-007 -2.000000e+001 -6.000000e+000
         vertex 5.196153e+000 -2.000000e+001 -3.000000e+000
         vertex 5.638155e+000 -2.000000e+001 -2.052121e+000
      endloop
   endfacet
   facet normal 0.000000e+000 -1.000000e+000 0.000000e+000
      outer loop
         vertex -2.052121e+000 -2.000000e+001 -5.638155e+000
         vertex -1.041889e+000 -2.000000e+001 -5.908846e+000
         vertex 6.000000e+000 -2.000000e+001 -2.634753e-007
      endloop
   endfacet
   facet normal 0.000000e+000 -1.000000e+000 0.000000e+000
      outer loop
         vertex 6.000000e+000 -2.000000e+001 -2.634753e-007
         vertex -1.041889e+000 -2.000000e+001 -5.908846e+000
         vertex -2.634753e-007 -2.000000e+001 -6.000000e+000
      endloop
   endfacet
   facet normal 0.000000e+000 -1.000000e+000 0.000000e+000
      outer loop
         vertex 6.000000e+000 -2.000000e+001 -2.634753e-007
         vertex -2.634753e-007 -2.000000e+001 -6.000000e+000
         vertex 5.908846e+000 -2.000000e+001 -1.041889e+000
      endloop
   endfacet
   facet normal 0.000000e+000 -1.000000e+000 0.000000e+000
      outer loop
         vertex 5.908846e+000 -2.000000e+001 -1.041889e+000
         vertex -2.634753e-007 -2.000000e+001 -6.000000e+000
         vertex 5.638155e+000 -2.000000e+001 -2.052121e+000
      endloop
   endfacet
   facet normal 0.000000e+000 -1.000000e+000 0.000000e+000
      outer loop
         vertex 3.856726e+000 -2.000000e+001 -4.596267e+000
         vertex -2.634753e-007 -2.000000e+001 -6.000000e+000
         vertex 3.000000e+000 -2.000000e+001 -5.196152e+000
      endloop
   endfacet
   facet normal 0.000000e+000 -1.000000e+000 0.000000e+000
      outer loop
         vertex 3.000000e+000 -2.000000e+001 -5.196152e+000
         vertex -2.634753e-007 -2.000000e+001 -6.000000e+000
         vertex 1.041889e+000 -2.000000e+001 -5.908846e+000
      endloop
   endfacet
   facet normal 0.000000e+000 -1.000000e+000 0.000000e+000
      outer loop
         vertex 3.000000e+000 -2.000000e+001 -5.196152e+000
         vertex 1.041889e+000 -2.000000e+001 -5.908846e+000
         vertex 2.052121e+000 -2.000000e+001 -5.638155e+000
      endloop
   endfacet
   facet normal 0.000000e+000 -1.000000e+000 0.000000e+000
      outer loop
         vertex -6.000000e+000 -1.200000e+001 4.481443e+001
         vertex 6.000000e+000 -1.200000e+001 4.481443e+001
         vertex -6.000000e+000 -1.200000e+001 5.720000e+001
      endloop
   endfacet
   facet normal 0.000000e+000 -1.000000e+000 0.000000e+000
      outer loop
         vertex -6.000000e+000 -1.200000e+001 5.720000e+001
         vertex 6.000000e+000 -1.200000e+001 4.481443e+001
         vertex 6.000000e+000 -1.200000e+001 5.720000e+001
      endloop
   endfacet
   facet normal 0.000000e+000 -1.000000e+000 0.000000e+000
      outer loop
         vertex 6.000000e+000 -1.200000e+001 5.720000e+001
         vertex 5.908845e+000 -1.200000e+001 5.824189e+001
         vertex -6.000000e+000 -1.200000e+001 5.720000e+001
      endloop
   endfacet
   facet normal 0.000000e+000 -1.000000e+000 0.000000e+000
      outer loop
         vertex -6.000000e+000 -1.200000e+001 5.720000e+001
         vertex 5.908845e+000 -1.200000e+001 5.824189e+001
         vertex 5.638155e+000 -1.200000e+001 5.925212e+001
      endloop
   endfacet
   facet normal 0.000000e+000 -1.000000e+000 0.000000e+000
      outer loop
         vertex -6.000000e+000 -1.200000e+001 5.720000e+001
         vertex 5.638155e+000 -1.200000e+001 5.925212e+001
         vertex 5.196155e+000 -1.200000e+001 6.020000e+001
      endloop
   endfacet
   facet normal 0.000000e+000 -1.000000e+000 0.000000e+000
      outer loop
         vertex 5.196155e+000 -1.200000e+001 6.020000e+001
         vertex 4.596265e+000 -1.200000e+001 6.105672e+001
         vertex -6.000000e+000 -1.200000e+001 5.720000e+001
      endloop
   endfacet
   facet normal 0.000000e+000 -1.000000e+000 0.000000e+000
      outer loop
         vertex -6.000000e+000 -1.200000e+001 5.720000e+001
         vertex 4.596265e+000 -1.200000e+001 6.105672e+001
         vertex 3.856725e+000 -1.200000e+001 6.179627e+001
      endloop
   endfacet
   facet normal 0.000000e+000 -1.000000e+000 0.000000e+000
      outer loop
         vertex -6.000000e+000 -1.200000e+001 5.720000e+001
         vertex 3.856725e+000 -1.200000e+001 6.179627e+001
         vertex 3.000000e+000 -1.200000e+001 6.239615e+001
      endloop
   endfacet
   facet normal 0.000000e+000 -1.000000e+000 0.000000e+000
      outer loop
         vertex 3.000000e+000 -1.200000e+001 6.239615e+001
         vertex 2.052119e+000 -1.200000e+001 6.283816e+001
         vertex -6.000000e+000 -1.200000e+001 5.720000e+001
      endloop
   endfacet
   facet normal 0.000000e+000 -1.000000e+000 0.000000e+000
      outer loop
         vertex -6.000000e+000 -1.200000e+001 5.720000e+001
         vertex 2.052119e+000 -1.200000e+001 6.283816e+001
         vertex 1.041888e+000 -1.200000e+001 6.310884e+001
      endloop
   endfacet
   facet normal 0.000000e+000 -1.000000e+000 0.000000e+000
      outer loop
         vertex -6.000000e+000 -1.200000e+001 5.720000e+001
         vertex 1.041888e+000 -1.200000e+001 6.310884e+001
         vertex -5.908845e+000 -1.200000e+001 5.824189e+001
      endloop
   endfacet
   facet normal 0.000000e+000 -1.000000e+000 0.000000e+000
      outer loop
         vertex -5.908845e+000 -1.200000e+001 5.824189e+001
         vertex 1.041888e+000 -1.200000e+001 6.310884e+001
         vertex 1.175252e-007 -1.200000e+001 6.320000e+001
      endloop
   endfacet
   facet normal 0.000000e+000 -1.000000e+000 0.000000e+000
      outer loop
         vertex -5.908845e+000 -1.200000e+001 5.824189e+001
         vertex 1.175252e-007 -1.200000e+001 6.320000e+001
         vertex -1.041888e+000 -1.200000e+001 6.310884e+001
      endloop
   endfacet
   facet normal 0.000000e+000 -1.000000e+000 0.000000e+000
      outer loop
         vertex -4.596268e+000 -1.200000e+001 6.105672e+001
         vertex -5.196152e+000 -1.200000e+001 6.020000e+001
         vertex -3.856726e+000 -1.200000e+001 6.179627e+001
      endloop
   endfacet
   facet normal 0.000000e+000 -1.000000e+000 0.000000e+000
      outer loop
         vertex -3.856726e+000 -1.200000e+001 6.179627e+001
         vertex -5.196152e+000 -1.200000e+001 6.020000e+001
         vertex -2.999998e+000 -1.200000e+001 6.239615e+001
      endloop
   endfacet
   facet normal 0.000000e+000 -1.000000e+000 0.000000e+000
      outer loop
         vertex -1.041888e+000 -1.200000e+001 6.310884e+001
         vertex -2.052122e+000 -1.200000e+001 6.283815e+001
         vertex -5.908845e+000 -1.200000e+001 5.824189e+001
      endloop
   endfacet
   facet normal 0.000000e+000 -1.000000e+000 0.000000e+000
      outer loop
         vertex -5.908845e+000 -1.200000e+001 5.824189e+001
         vertex -2.052122e+000 -1.200000e+001 6.283815e+001
         vertex -2.999998e+000 -1.200000e+001 6.239615e+001
      endloop
   endfacet
   facet normal 0.000000e+000 -1.000000e+000 0.000000e+000
      outer loop
         vertex -5.908845e+000 -1.200000e+001 5.824189e+001
         vertex -2.999998e+000 -1.200000e+001 6.239615e+001
         vertex -5.638154e+000 -1.200000e+001 5.925212e+001
      endloop
   endfacet
   facet normal 0.000000e+000 -1.000000e+000 0.000000e+000
      outer loop
         vertex -5.638154e+000 -1.200000e+001 5.925212e+001
         vertex -2.999998e+000 -1.200000e+001 6.239615e+001
         vertex -5.196152e+000 -1.200000e+001 6.020000e+001
      endloop
   endfacet
   facet normal -1.729687e-008 -8.191521e-001 5.735765e-001
      outer loop
         vertex 6.000000e+000 -1.200000e+001 4.481443e+001
         vertex -6.000000e+000 -1.200000e+001 4.481443e+001
         vertex 5.999999e+000 -1.700000e+001 3.767369e+001
      endloop
   endfacet
   facet normal -1.729687e-008 -8.191521e-001 5.735765e-001
      outer loop
         vertex 5.999999e+000 -1.700000e+001 3.767369e+001
         vertex -6.000000e+000 -1.200000e+001 4.481443e+001
         vertex -6.000000e+000 -1.700000e+001 3.767369e+001
      endloop
   endfacet
   facet normal 0.000000e+000 -1.000000e+000 0.000000e+000
      outer loop
         vertex 5.999999e+000 -1.700000e+001 3.767369e+001
         vertex -6.000000e+000 -1.700000e+001 3.767369e+001
         vertex 6.000000e+000 -1.700000e+001 1.478981e+001
      endloop
   endfacet
   facet normal 0.000000e+000 -1.000000e+000 0.000000e+000
      outer loop
         vertex 6.000000e+000 -1.700000e+001 1.478981e+001
         vertex -6.000000e+000 -1.700000e+001 3.767369e+001
         vertex -6.000000e+000 -1.700000e+001 1.478981e+001
      endloop
   endfacet
   facet normal -1.729687e-008 -8.191521e-001 5.735765e-001
      outer loop
         vertex 6.000000e+000 -1.700000e+001 1.478981e+001
         vertex -6.000000e+000 -1.700000e+001 1.478981e+001
         vertex 6.000000e+000 -2.000000e+001 1.050536e+001
      endloop
   endfacet
   facet normal -1.729687e-008 -8.191521e-001 5.735765e-001
      outer loop
         vertex 6.000000e+000 -2.000000e+001 1.050536e+001
         vertex -6.000000e+000 -1.700000e+001 1.478981e+001
         vertex -6.000000e+000 -2.000000e+001 1.050536e+001
      endloop
   endfacet
   facet normal 0.000000e+000 1.000000e+000 0.000000e+000
      outer loop
         vertex 5.999999e+000 1.700000e+001 3.767369e+001
         vertex 6.000000e+000 1.700000e+001 1.478981e+001
         vertex -6.000000e+000 1.700000e+001 3.767369e+001
      endloop
   endfacet
   facet normal 0.000000e+000 1.000000e+000 0.000000e+000
      outer loop
         vertex -6.000000e+000 1.700000e+001 3.767369e+001
         vertex 6.000000e+000 1.700000e+001 1.478981e+001
         vertex -6.000000e+000 1.700000e+001 1.478981e+001
      endloop
   endfacet
   facet normal -1.729687e-008 8.191521e-001 5.735765e-001
      outer loop
         vertex 6.000000e+000 1.200000e+001 4.481443e+001
         vertex 5.999999e+000 1.700000e+001 3.767369e+001
         vertex -6.000000e+000 1.200000e+001 4.481443e+001
      endloop
   endfacet
   facet normal -1.729687e-008 8.191521e-001 5.735765e-001
      outer loop
         vertex -6.000000e+000 1.200000e+001 4.481443e+001
         vertex 5.999999e+000 1.700000e+001 3.767369e+001
         vertex -6.000000e+000 1.700000e+001 3.767369e+001
      endloop
   endfacet
   facet normal 0.000000e+000 1.000000e+000 0.000000e+000
      outer loop
         vertex -6.000000e+000 1.200000e+001 5.720000e+001
         vertex 5.196155e+000 1.200000e+001 6.020000e+001
         vertex 5.638155e+000 1.200000e+001 5.925212e+001
      endloop
   endfacet
   facet normal 0.000000e+000 1.000000e+000 0.000000e+000
      outer loop
         vertex 2.052119e+000 1.200000e+001 6.283816e+001
         vertex 3.000000e+000 1.200000e+001 6.239615e+001
         vertex -6.000000e+000 1.200000e+001 5.720000e+001
      endloop
   endfacet
   facet normal 0.000000e+000 1.000000e+000 0.000000e+000
      outer loop
         vertex 6.000000e+000 1.200000e+001 4.481443e+001
         vertex -6.000000e+000 1.200000e+001 4.481443e+001
         vertex 6.000000e+000 1.200000e+001 5.720000e+001
      endloop
   endfacet
   facet normal 0.000000e+000 1.000000e+000 0.000000e+000
      outer loop
         vertex 6.000000e+000 1.200000e+001 5.720000e+001
         vertex -6.000000e+000 1.200000e+001 4.481443e+001
         vertex -6.000000e+000 1.200000e+001 5.720000e+001
      endloop
   endfacet
   facet normal 0.000000e+000 1.000000e+000 0.000000e+000
      outer loop
         vertex 6.000000e+000 1.200000e+001 5.720000e+001
         vertex -6.000000e+000 1.200000e+001 5.720000e+001
         vertex 5.908845e+000 1.200000e+001 5.824189e+001
      endloop
   endfacet
   facet normal 0.000000e+000 1.000000e+000 0.000000e+000
      outer loop
         vertex 5.908845e+000 1.200000e+001 5.824189e+001
         vertex -6.000000e+000 1.200000e+001 5.720000e+001
         vertex 5.638155e+000 1.200000e+001 5.925212e+001
      endloop
   endfacet
   facet normal 0.000000e+000 1.000000e+000 0.000000e+000
      outer loop
         vertex -5.638154e+000 1.200000e+001 5.925212e+001
         vertex -5.196152e+000 1.200000e+001 6.020000e+001
         vertex 1.041888e+000 1.200000e+001 6.310884e+001
      endloop
   endfacet
   facet normal 0.000000e+000 1.000000e+000 0.000000e+000
      outer loop
         vertex 2.052119e+000 1.200000e+001 6.283816e+001
         vertex -6.000000e+000 1.200000e+001 5.720000e+001
         vertex 1.041888e+000 1.200000e+001 6.310884e+001
      endloop
   endfacet
   facet normal 0.000000e+000 1.000000e+000 0.000000e+000
      outer loop
         vertex 1.041888e+000 1.200000e+001 6.310884e+001
         vertex -6.000000e+000 1.200000e+001 5.720000e+001
         vertex -5.908845e+000 1.200000e+001 5.824189e+001
      endloop
   endfacet
   facet normal 0.000000e+000 1.000000e+000 0.000000e+000
      outer loop
         vertex 1.041888e+000 1.200000e+001 6.310884e+001
         vertex -5.908845e+000 1.200000e+001 5.824189e+001
         vertex -5.638154e+000 1.200000e+001 5.925212e+001
      endloop
   endfacet
   facet normal 0.000000e+000 1.000000e+000 0.000000e+000
      outer loop
         vertex 3.000000e+000 1.200000e+001 6.239615e+001
         vertex 3.856725e+000 1.200000e+001 6.179627e+001
         vertex -6.000000e+000 1.200000e+001 5.720000e+001
      endloop
   endfacet
   facet normal 0.000000e+000 1.000000e+000 0.000000e+000
      outer loop
         vertex -6.000000e+000 1.200000e+001 5.720000e+001
         vertex 3.856725e+000 1.200000e+001 6.179627e+001
         vertex 4.596265e+000 1.200000e+001 6.105672e+001
      endloop
   endfacet
   facet normal 0.000000e+000 1.000000e+000 0.000000e+000
      outer loop
         vertex -6.000000e+000 1.200000e+001 5.720000e+001
         vertex 4.596265e+000 1.200000e+001 6.105672e+001
         vertex 5.196155e+000 1.200000e+001 6.020000e+001
      endloop
   endfacet
   facet normal 0.000000e+000 1.000000e+000 0.000000e+000
      outer loop
         vertex -5.196152e+000 1.200000e+001 6.020000e+001
         vertex -4.596268e+000 1.200000e+001 6.105672e+001
         vertex 1.041888e+000 1.200000e+001 6.310884e+001
      endloop
   endfacet
   facet normal 0.000000e+000 1.000000e+000 0.000000e+000
      outer loop
         vertex 1.041888e+000 1.200000e+001 6.310884e+001
         vertex -4.596268e+000 1.200000e+001 6.105672e+001
         vertex -3.856726e+000 1.200000e+001 6.179627e+001
      endloop
   endfacet
   facet normal 0.000000e+000 1.000000e+000 0.000000e+000
      outer loop
         vertex 1.041888e+000 1.200000e+001 6.310884e+001
         vertex -3.856726e+000 1.200000e+001 6.179627e+001
         vertex -2.999998e+000 1.200000e+001 6.239615e+001
      endloop
   endfacet
   facet normal 0.000000e+000 1.000000e+000 0.000000e+000
      outer loop
         vertex -2.999998e+000 1.200000e+001 6.239615e+001
         vertex -2.052122e+000 1.200000e+001 6.283815e+001
         vertex 1.041888e+000 1.200000e+001 6.310884e+001
      endloop
   endfacet
   facet normal 0.000000e+000 1.000000e+000 0.000000e+000
      outer loop
         vertex 1.041888e+000 1.200000e+001 6.310884e+001
         vertex -2.052122e+000 1.200000e+001 6.283815e+001
         vertex -1.041888e+000 1.200000e+001 6.310884e+001
      endloop
   endfacet
   facet normal 0.000000e+000 1.000000e+000 0.000000e+000
      outer loop
         vertex 1.041888e+000 1.200000e+001 6.310884e+001
         vertex -1.041888e+000 1.200000e+001 6.310884e+001
         vertex 1.175252e-007 1.200000e+001 6.320000e+001
      endloop
   endfacet
   facet normal -1.729687e-008 8.191521e-001 5.735765e-001
      outer loop
         vertex 6.000000e+000 1.700000e+001 1.478981e+001
         vertex 6.000000e+000 2.000000e+001 1.050536e+001
         vertex -6.000000e+000 1.700000e+001 1.478981e+001
      endloop
   endfacet
   facet normal -1.729687e-008 8.191521e-001 5.735765e-001
      outer loop
         vertex -6.000000e+000 1.700000e+001 1.478981e+001
         vertex 6.000000e+000 2.000000e+001 1.050536e+001
         vertex -6.000000e+000 2.000000e+001 1.050536e+001
      endloop
   endfacet
endsolid