solid bldgfframeupheight
   facet normal 1.000000e+000 0.000000e+000 0.000000e+000
      outer loop
         vertex 3.000000e+001 3.000000e+001 -2.980232e-006
         vertex 3.000000e+001 3.000000e+001 4.000000e+002
         vertex 3.000000e+001 -3.000000e+001 -2.980232e-006
      endloop
   endfacet
   facet normal 1.000000e+000 0.000000e+000 0.000000e+000
      outer loop
         vertex 3.000000e+001 -3.000000e+001 -2.980232e-006
         vertex 3.000000e+001 3.000000e+001 4.000000e+002
         vertex 3.000000e+001 -3.000000e+001 4.000000e+002
      endloop
   endfacet
   facet normal 0.000000e+000 0.000000e+000 -1.000000e+000
      outer loop
         vertex -3.000000e+001 3.000000e+001 -2.980232e-006
         vertex 3.000000e+001 3.000000e+001 -2.980232e-006
         vertex -3.000000e+001 -3.000000e+001 -2.980232e-006
      endloop
   endfacet
   facet normal 0.000000e+000 0.000000e+000 -1.000000e+000
      outer loop
         vertex -3.000000e+001 -3.000000e+001 -2.980232e-006
         vertex 3.000000e+001 3.000000e+001 -2.980232e-006
         vertex 3.000000e+001 -3.000000e+001 -2.980232e-006
      endloop
   endfacet
   facet normal -1.000000e+000 0.000000e+000 0.000000e+000
      outer loop
         vertex -3.000000e+001 3.000000e+001 4.000000e+002
         vertex -3.000000e+001 3.000000e+001 -2.980232e-006
         vertex -3.000000e+001 -3.000000e+001 4.000000e+002
      endloop
   endfacet
   facet normal -1.000000e+000 0.000000e+000 0.000000e+000
      outer loop
         vertex -3.000000e+001 -3.000000e+001 4.000000e+002
         vertex -3.000000e+001 3.000000e+001 -2.980232e-006
         vertex -3.000000e+001 -3.000000e+001 -2.980232e-006
      endloop
   endfacet
   facet normal 0.000000e+000 0.000000e+000 1.000000e+000
      outer loop
         vertex 3.000000e+001 3.000000e+001 4.000000e+002
         vertex -3.000000e+001 3.000000e+001 4.000000e+002
         vertex 3.000000e+001 -3.000000e+001 4.000000e+002
      endloop
   endfacet
   facet normal 0.000000e+000 0.000000e+000 1.000000e+000
      outer loop
         vertex 3.000000e+001 -3.000000e+001 4.000000e+002
         vertex -3.000000e+001 3.000000e+001 4.000000e+002
         vertex -3.000000e+001 -3.000000e+001 4.000000e+002
      endloop
   endfacet
   facet normal 0.000000e+000 1.000000e+000 0.000000e+000
      outer loop
         vertex -3.000000e+001 3.000000e+001 -2.980232e-006
         vertex -3.000000e+001 3.000000e+001 4.000000e+002
         vertex 3.000000e+001 3.000000e+001 -2.980232e-006
      endloop
   endfacet
   facet normal 0.000000e+000 1.000000e+000 0.000000e+000
      outer loop
         vertex 3.000000e+001 3.000000e+001 -2.980232e-006
         vertex -3.000000e+001 3.000000e+001 4.000000e+002
         vertex 3.000000e+001 3.000000e+001 4.000000e+002
      endloop
   endfacet
   facet normal 0.000000e+000 -1.000000e+000 0.000000e+000
      outer loop
         vertex -3.000000e+001 -3.000000e+001 4.000000e+002
         vertex -3.000000e+001 -3.000000e+001 -2.980232e-006
         vertex 3.000000e+001 -3.000000e+001 4.000000e+002
      endloop
   endfacet
   facet normal 0.000000e+000 -1.000000e+000 0.000000e+000
      outer loop
         vertex 3.000000e+001 -3.000000e+001 4.000000e+002
         vertex -3.000000e+001 -3.000000e+001 -2.980232e-006
         vertex 3.000000e+001 -3.000000e+001 -2.980232e-006
      endloop
   endfacet
endsolid